<?xml version="1.0" encoding="UTF-8" standalone="no"?>
<svg
   xmlns:dc="http://purl.org/dc/elements/1.1/"
   xmlns:cc="http://creativecommons.org/ns#"
   xmlns:rdf="http://www.w3.org/1999/02/22-rdf-syntax-ns#"
   xmlns:svg="http://www.w3.org/2000/svg"
   xmlns="http://www.w3.org/2000/svg"
   xmlns:xlink="http://www.w3.org/1999/xlink"
   xmlns:sodipodi="http://sodipodi.sourceforge.net/DTD/sodipodi-0.dtd"
   xmlns:inkscape="http://www.inkscape.org/namespaces/inkscape"
   width="17.455774mm"
   height="17.455774mm"
   viewBox="0 0 17.455773 17.455775"
   version="1.1"
   id="svg1721"
   inkscape:version="1.0.2 (e86c870879, 2021-01-15)"
   sodipodi:docname="chlore.svg">
  <defs
     id="defs1715">
    <radialGradient
       inkscape:collect="always"
       xlink:href="#linearGradient2453"
       id="radialGradient2457"
       gradientUnits="userSpaceOnUse"
       cx="81.401115"
       cy="57.242413"
       fx="81.401115"
       fy="57.242413"
       r="6.1761298"
       gradientTransform="matrix(1.2695639,0,0,1.269563,-23.050635,52.18905)" />
    <linearGradient
       inkscape:collect="always"
       id="linearGradient2453">
      <stop
         style="stop-color:#66aa66;stop-opacity:1"
         offset="0"
         id="stop2451" />
      <stop
         style="stop-color:#009900;stop-opacity:1"
         offset="1"
         id="stop2449" />
    </linearGradient>
  </defs>
  <sodipodi:namedview
     id="base"
     pagecolor="#ffffff"
     bordercolor="#666666"
     borderopacity="1.0"
     inkscape:pageopacity="0.0"
     inkscape:pageshadow="2"
     inkscape:zoom="3.959798"
     inkscape:cx="2.8846158"
     inkscape:cy="50.992057"
     inkscape:document-units="mm"
     inkscape:current-layer="layer1"
     inkscape:document-rotation="0"
     showgrid="false"
     inkscape:window-width="1366"
     inkscape:window-height="715"
     inkscape:window-x="0"
     inkscape:window-y="0"
     inkscape:window-maximized="1" />
  <metadata
     id="metadata1718">
    <rdf:RDF>
      <cc:Work
         rdf:about="">
        <dc:format>image/svg+xml</dc:format>
        <dc:type
           rdf:resource="http://purl.org/dc/dcmitype/StillImage" />
        <dc:title></dc:title>
      </cc:Work>
    </rdf:RDF>
  </metadata>
  <g
     inkscape:label="Calque 1"
     inkscape:groupmode="layer"
     id="layer1"
     transform="translate(-73.796954,-118.18201)">
    <circle
       style="fill:url(#radialGradient2457);fill-opacity:1;stroke:none;stroke-width:0.264999;stroke-linecap:round;stroke-miterlimit:4;stroke-dasharray:none;stop-color:#000000"
       id="path2439"
       cx="82.524841"
       cy="126.9099"
       r="8.7278872" />
  </g>
</svg>
