<?xml version="1.0" encoding="UTF-8" standalone="no"?>
<svg
   xmlns:dc="http://purl.org/dc/elements/1.1/"
   xmlns:cc="http://creativecommons.org/ns#"
   xmlns:rdf="http://www.w3.org/1999/02/22-rdf-syntax-ns#"
   xmlns:svg="http://www.w3.org/2000/svg"
   xmlns="http://www.w3.org/2000/svg"
   xmlns:sodipodi="http://sodipodi.sourceforge.net/DTD/sodipodi-0.dtd"
   xmlns:inkscape="http://www.inkscape.org/namespaces/inkscape"
   width="10.163802mm"
   height="34.09404mm"
   viewBox="0 0 10.163802 34.09404"
   version="1.1"
   id="svg1721"
   inkscape:version="1.0.2 (e86c870879, 2021-01-15)"
   sodipodi:docname="briquet.svg">
  <defs
     id="defs1715" />
  <sodipodi:namedview
     id="base"
     pagecolor="#ffffff"
     bordercolor="#666666"
     borderopacity="1.0"
     inkscape:pageopacity="0.0"
     inkscape:pageshadow="2"
     inkscape:zoom="1.4"
     inkscape:cx="-19.012195"
     inkscape:cy="-43.572698"
     inkscape:document-units="mm"
     inkscape:current-layer="layer1"
     inkscape:document-rotation="0"
     showgrid="false"
     inkscape:window-width="1366"
     inkscape:window-height="715"
     inkscape:window-x="0"
     inkscape:window-y="0"
     inkscape:window-maximized="1" />
  <metadata
     id="metadata1718">
    <rdf:RDF>
      <cc:Work
         rdf:about="">
        <dc:format>image/svg+xml</dc:format>
        <dc:type
           rdf:resource="http://purl.org/dc/dcmitype/StillImage" />
        <dc:title></dc:title>
      </cc:Work>
    </rdf:RDF>
  </metadata>
  <g
     inkscape:label="Calque 1"
     inkscape:groupmode="layer"
     id="layer1"
     transform="translate(-97.472766,-140.93841)">
    <g
       id="g1699"
       transform="translate(-34.70855,34.311763)">
      <g
         id="g1681"
         transform="matrix(0.70779221,0,0,0.75821513,171.85559,58.643202)"
         style="stroke-width:1.36505">
        <path
           id="rect1668"
           style="fill:none;stroke:#000000;stroke-width:0.36117;stroke-linecap:round;stroke-miterlimit:4;stroke-dasharray:none;stop-color:#000000"
           d="m -42.204425,82.118561 h 0.309927 l 0.02008,25.951779 H -55.872976 V 76.238631 h 7.825907 v 2.093901"
           sodipodi:nodetypes="ccccccc" />
        <path
           id="path1670"
           style="fill:none;stroke:#000000;stroke-width:0.36117;stroke-linecap:round;stroke-miterlimit:4;stroke-dasharray:none;stop-color:#000000"
           d="m -48.048815,78.343502 c 0.644608,-0.641611 1.533341,-1.038169 2.514696,-1.038169 1.968721,0 3.564685,1.595964 3.564685,3.564685 0,0.441423 -0.08024,0.864107 -0.226917,1.254262"
           sodipodi:nodetypes="cssc" />
      </g>
      <path
         style="fill:none;stroke:#000000;stroke-width:0.264583;stroke-linecap:round;stroke-miterlimit:4;stroke-dasharray:none;stop-color:#000000"
         d="m 133.75396,116.4331 c -4.18532,-6.09055 3.46209,-4.70797 1.93063,-9.55087 5.32518,2.62218 -1.42395,4.62342 0.86462,9.54925"
         id="path1683"
         sodipodi:nodetypes="ccc" />
    </g>
  </g>
</svg>
