<?xml version="1.0" encoding="UTF-8" standalone="no"?>
<!-- Created with Inkscape (http://www.inkscape.org/) -->

<svg
   width="20mm"
   height="20mm"
   viewBox="0 0 20 20"
   version="1.1"
   id="svg5881"
   xml:space="preserve"
   inkscape:version="1.2.2 (b0a8486541, 2022-12-01)"
   sodipodi:docname="inter_ferme.svg"
   xmlns:inkscape="http://www.inkscape.org/namespaces/inkscape"
   xmlns:sodipodi="http://sodipodi.sourceforge.net/DTD/sodipodi-0.dtd"
   xmlns="http://www.w3.org/2000/svg"
   xmlns:svg="http://www.w3.org/2000/svg"><sodipodi:namedview
     id="namedview5883"
     pagecolor="#ffffff"
     bordercolor="#666666"
     borderopacity="1.0"
     inkscape:showpageshadow="2"
     inkscape:pageopacity="0.0"
     inkscape:pagecheckerboard="0"
     inkscape:deskcolor="#d1d1d1"
     inkscape:document-units="mm"
     showgrid="false"
     inkscape:zoom="6.7277216"
     inkscape:cx="18.208245"
     inkscape:cy="35.524657"
     inkscape:window-width="1920"
     inkscape:window-height="1007"
     inkscape:window-x="0"
     inkscape:window-y="0"
     inkscape:window-maximized="1"
     inkscape:current-layer="layer1" /><defs
     id="defs5878" /><g
     inkscape:label="Calque 1"
     inkscape:groupmode="layer"
     id="layer1"><path
       style="fill:#ffffff;stroke:#000000;stroke-width:0.5;stroke-linecap:butt;stroke-dasharray:none;paint-order:markers fill stroke;stop-color:#000000"
       d="M 2.5e-7,10 H 20"
       id="path17923" /><g
       id="g18358"
       transform="translate(0.03052223,0.10917664)"><circle
         style="fill:#ffffff;stroke:#000000;stroke-width:0.499999;stroke-linecap:butt;stroke-dasharray:none;paint-order:markers fill stroke;stop-color:#000000"
         id="path18332"
         cx="17.186043"
         cy="9.9104872"
         r="0.74721926" /><circle
         style="fill:#ffffff;stroke:#000000;stroke-width:0.499999;stroke-linecap:butt;stroke-dasharray:none;paint-order:markers fill stroke;stop-color:#000000"
         id="path18332-6"
         cx="2.7529128"
         cy="9.8711596"
         r="0.74721926" /></g></g></svg>
