<?xml version="1.0" encoding="UTF-8" standalone="no"?>
<!-- Created with Inkscape (http://www.inkscape.org/) -->

<svg
   width="20mm"
   height="20mm"
   viewBox="0 0 20 20"
   version="1.1"
   id="svg5881"
   xml:space="preserve"
   inkscape:version="1.2.2 (b0a8486541, 2022-12-01)"
   sodipodi:docname="lampe.svg"
   xmlns:inkscape="http://www.inkscape.org/namespaces/inkscape"
   xmlns:sodipodi="http://sodipodi.sourceforge.net/DTD/sodipodi-0.dtd"
   xmlns="http://www.w3.org/2000/svg"
   xmlns:svg="http://www.w3.org/2000/svg"><sodipodi:namedview
     id="namedview5883"
     pagecolor="#ffffff"
     bordercolor="#666666"
     borderopacity="1.0"
     inkscape:showpageshadow="2"
     inkscape:pageopacity="0.0"
     inkscape:pagecheckerboard="0"
     inkscape:deskcolor="#d1d1d1"
     inkscape:document-units="mm"
     showgrid="false"
     inkscape:zoom="6.7277216"
     inkscape:cx="16.42458"
     inkscape:cy="43.997064"
     inkscape:window-width="1920"
     inkscape:window-height="1007"
     inkscape:window-x="0"
     inkscape:window-y="0"
     inkscape:window-maximized="1"
     inkscape:current-layer="layer1" /><defs
     id="defs5878" /><g
     inkscape:label="Calque 1"
     inkscape:groupmode="layer"
     id="layer1"><g
       id="g11282"><path
         style="opacity:1;fill:#ffffff;stroke:#000000;stroke-width:0.5;stroke-linecap:butt;stroke-dasharray:none;paint-order:markers fill stroke;stop-color:#000000"
         d="m -2.9959751e-7,9.9999996 c 2.09874449959751,0 1.99111649959751,0 1.99111649959751,0"
         id="path6321" /><circle
         style="opacity:1;fill:#ffffff;stroke:#000000;stroke-width:0.5;stroke-linecap:round;paint-order:markers fill stroke;stop-color:#000000"
         id="path6068"
         cx="14.142136"
         cy="8.8817842e-16"
         r="8.0088835"
         transform="rotate(45)" /><path
         style="opacity:0.8;fill:#ffffff;stroke:#000000;stroke-width:0.499999;stroke-linecap:round;paint-order:markers fill stroke;stop-color:#000000"
         d="M 4.3368642,4.3368642 15.663135,15.663135"
         id="path6294" /><path
         style="opacity:0.8;fill:#ffffff;stroke:#000000;stroke-width:0.499999;stroke-linecap:round;paint-order:markers fill stroke;stop-color:#000000"
         d="M 15.663136,4.3368642 4.3368645,15.663135"
         id="path6296" /><path
         style="fill:#ffffff;stroke:#000000;stroke-width:0.5;stroke-linecap:butt;stroke-dasharray:none;paint-order:markers fill stroke;stop-color:#000000"
         d="m 20,9.9999996 c -2.098744,0 -1.991116,0 -1.991116,0"
         id="path6321-9" /></g></g></svg>
